{
    "args": {
        "calc_sequestration": true, 
        "carbon_pools_path": "carbon_pools_willamette.csv", 
        "do_redd": false, 
        "do_valuation": false, 
        "lulc_cur_path": "lulc_current_willamette.tif", 
        "lulc_cur_year": "2020", 
        "lulc_fut_path": "lulc_future_willamette.tif", 
        "lulc_fut_year": "2050", 
        "lulc_redd_path": "", 
        "results_suffix": "willamette"
    }, 
    "invest_version": "3.7.0", 
    "model_name": "natcap.invest.carbon"
}