NAME,VALUE,NOTE
CapMax ,250,Maximum capacity of device [kW].
HsMax,5.5,Upper limit of wave height for device operation [m]: this device shuts down when wave height is bigger than HsMax.
TpMax ,17.0,Upper limit of wave period for device operation [sec]: this device shuts down when wave period is longer than TpMax.
,,
,,
,,
,,
,,
,,
,,
,,
,,
,,
