{
    "args": {
   	    "skip_invalid_geometry": true,
        "dem_path": "DEM_gura.tif", 
        "flow_threshold": "1000", 
        "outlet_vector_path": "outlet_points.shp", 
        "results_suffix": "gura", 
        "snap_distance": "3",
        "snap_points": true
    }, 
    "invest_version": "3.7.0", 
    "model_name": "natcap.invest.delineateit.delineateit"
}